mariov@odin:~/Documents/EmbeddedSystemsArch/Assignments/project_3/c_files/part_1$ perf stat -e task-clock,cycles,instructions,cache-references,cache-misses ./main

 Performance counter stats for './main':

          0,498429      task-clock (msec)         #    0,589 CPUs utilized          
           785 081      cycles                    #    1,575 GHz                    
           450 570      instructions              #    0,57  insns per cycle        
            11 676      cache-references          #   23,426 M/sec                  
             1 525      cache-misses              #   13,061 % of all cache refs    

       0,000846667 seconds time elapsed

mariov@odin:~/Documents/EmbeddedSystemsArch/Assignments/project_3/c_files/part_1$ perf stat -e task-clock,cycles,instructions,cache-references,cache-misses ./main

 Performance counter stats for './main':

          0,336594      task-clock (msec)         #    0,488 CPUs utilized          
           548 364      cycles                    #    1,629 GHz                    
           416 444      instructions              #    0,76  insns per cycle        
             9 570      cache-references          #   28,432 M/sec                  
               750      cache-misses              #    7,837 % of all cache refs    

       0,000690345 seconds time elapsed

mariov@odin:~/Documents/EmbeddedSystemsArch/Assignments/project_3/c_files/part_1$ perf stat -e task-clock,cycles,instructions,cache-references,cache-misses ./main

 Performance counter stats for './main':

          0,331977      task-clock (msec)         #    0,506 CPUs utilized          
           540 982      cycles                    #    1,630 GHz                    
           421 929      instructions              #    0,78  insns per cycle        
             9 537      cache-references          #   28,728 M/sec                  
               714      cache-misses              #    7,487 % of all cache refs    

       0,000656392 seconds time elapsed

mariov@odin:~/Documents/EmbeddedSystemsArch/Assignments/project_3/c_files/part_1$ perf stat -e task-clock,cycles,instructions,cache-references,cache-misses ./main

 Performance counter stats for './main':

          0,343583      task-clock (msec)         #    0,478 CPUs utilized          
           560 165      cycles                    #    1,630 GHz                    
           428 230      instructions              #    0,76  insns per cycle        
            10 079      cache-references          #   29,335 M/sec                  
               919      cache-misses              #    9,118 % of all cache refs    

       0,000718955 seconds time elapsed

